<?xml version="1.0" encoding="UTF-8"?>
<svg width="121px" height="22px" viewBox="0 0 121 18" version="1.1" xmlns="http://www.w3.org/2000/svg" xmlns:xlink="http://www.w3.org/1999/xlink">
    <!-- Generator: Sketch 52.6 (67491) - http://www.bohemiancoding.com/sketch -->
    <title>divider</title>
    <desc>Created with Sketch.</desc>
    <g id="divider" stroke="none" stroke-width="1" fill="none" fill-rule="evenodd" stroke-linecap="round" stroke-linejoin="round">
        <g id="Group-24" stroke="#695C9E">
            <path d="M0,9.5 L120.603595,9.5" id="Path-2" stroke-dasharray="1,5"></path>
            <g id="circle-copy-3" transform="translate(51.000000, 0.000000)" fill="#1C1635">
                <polygon id="Rectangle" points="18 9 9 18 0 9 9 0"></polygon>
            </g>
        </g>
    </g>
</svg>
